{
  "images" : [
    {
      "idiom" : "iphone",
      "filename" : "320x480.png",
      "scale" : "1x"
    },
    {
      "idiom" : "iphone",
      "filename" : "750x1334.png",
      "scale" : "2x"
    },
    {
      "idiom" : "iphone",
      "filename" : "1242x2208.png",
      "scale" : "3x"
    },
    {
      "idiom" : "ipad",
      "filename" : "player-bg_768x1024.png",
      "scale" : "1x"
    },
    {
      "idiom" : "ipad",
      "filename" : "player-bg_1536x2048.png",
      "scale" : "2x"
    }
  ],
  "info" : {
    "version" : 1,
    "author" : "xcode"
  }
}